<?xml version="1.0" encoding="utf-8"?>
<!-- Generator: Adobe Illustrator 18.1.0, SVG Export Plug-In . SVG Version: 6.00 Build 0)  -->
<svg version="1.1" id="Layer_1" xmlns="http://www.w3.org/2000/svg" xmlns:xlink="http://www.w3.org/1999/xlink" x="0px" y="0px"
	 viewBox="0 0 9.3 121.5" enable-background="new 0 0 9.3 121.5" xml:space="preserve">
<g>
	<path fill="none" stroke="#434444" stroke-width="2" stroke-linecap="round" stroke-miterlimit="10" d="M4.7,118
		c0-4.1,0.4-4.1,0.3-8.2c0-4.1,0.4-4.1,0.4-8.2c0-4.1-0.1-4.1-0.1-8.2c0-4.1-0.6-4.1-0.6-8.2c0-4.1,0.3-4.1,0.3-8.2
		C4.9,73,4.1,73,4.1,69c0-4.1,0.8-4.1,0.8-8.2c0-4.1,0-4.1,0-8.2c0-4.1,0-4.1,0-8.2c0-4.1-0.7-4.1-0.8-8.2c0-4.1-0.3-4.1-0.3-8.2
		C3.7,24,4,24,4,19.9c0-4.1,0-4.1,0-8.2c0-4.1,0.1-4.1,0-8.2"/>
</g>
</svg>
