<?xml version="1.0" encoding="utf-8"?>
<!-- Generator: Adobe Illustrator 18.1.0, SVG Export Plug-In . SVG Version: 6.00 Build 0)  -->
<svg version="1.1" id="Layer_1" xmlns="http://www.w3.org/2000/svg" xmlns:xlink="http://www.w3.org/1999/xlink" x="0px" y="0px"
	 viewBox="0 0 11.654 10.36" enable-background="new 0 0 11.654 10.36" xml:space="preserve">
<g id="bennysecondshoot-10000005__x2B__Rectangle_1__x2B__Rectangle_1__x2B__Brightness_x2F_Contrast_1_xA0_Image_8_">
	<g>
		<path fill="#c39a6b" d="M9.986,0.104C7.307,0.087,4.627,0.087,1.948,0.104C1.266,0.109,0.865,0.568,0.864,1.252c-0.004,2.647-0.004,5.293,0,7.94
			c0.001,0.738,0.388,1.121,1.122,1.123c1.331,0.004,2.664,0.001,3.995,0.001s2.663,0.003,3.994-0.001
			c0.713-0.002,1.109-0.372,1.111-1.086c0.01-2.663,0.009-5.326,0-7.989C11.084,0.553,10.673,0.108,9.986,0.104z M8.966,1.421
			c0.799,0.001,0.799,0.001,0.799,0.888C9.765,3.134,9.765,3.134,8.93,3.134C8.106,3.133,8.106,3.133,8.106,2.285
			C8.106,1.421,8.106,1.421,8.966,1.421z M6.021,3.306c1.013-0.01,1.93,0.907,1.928,1.929C7.948,6.259,7.096,7.104,6.057,7.109
			C4.966,7.115,4.147,6.304,4.154,5.222C4.159,4.186,5.008,3.316,6.021,3.306z M9.767,8.521C9.768,8.893,9.61,9.052,9.231,9.051
			c-2.171-0.009-4.342-0.009-6.514,0C2.334,9.052,2.19,8.889,2.194,8.517C2.203,7.349,2.198,6.18,2.195,5.013
			C2.194,4.767,2.189,4.554,2.544,4.566c0.341,0.012,0.298,0.231,0.292,0.444C2.795,6.43,3.384,7.503,4.669,8.12
			c1.084,0.521,2.176,0.444,3.176-0.25c1.011-0.701,1.476-1.684,1.388-2.92C9.228,4.884,9.223,4.818,9.225,4.752
			C9.226,4.72,9.239,4.689,9.256,4.623c0.355-0.12,0.515-0.03,0.512,0.344C9.759,6.152,9.76,7.337,9.767,8.521z"/>
	</g>
</g>
</svg>
