<?xml version="1.0" encoding="utf-8"?>
<!-- Generator: Adobe Illustrator 18.1.0, SVG Export Plug-In . SVG Version: 6.00 Build 0)  -->
<svg version="1.1" id="Layer_1" xmlns="http://www.w3.org/2000/svg" xmlns:xlink="http://www.w3.org/1999/xlink" x="0px" y="0px"
	 viewBox="0 206.89 595.28 428.11" enable-background="new 0 206.89 595.28 428.11" xml:space="preserve">
<g>
	<g>
		<path fill="#FFFFFF" d="M146.948,327.704c3.267-0.027,6.659,0.344,10.15,1.219c1.054,0.241,21.03,4.873,17.93,31.505
			c-0.068,0.71-1.367,14.223-11.947,28.604c-1.193,1.621-2.511,3.147-3.891,4.607c-2.802,2.96-5.828,5.933-9.421,7.837
			c-10.203,5.419-19.775,6.175-23.957,6.21c-1.413,0.012-2.173-0.053-2.213-0.057c-1.036-0.04-2.068-0.058-3.066-0.328
			c-1.587-0.434-3.01-1.56-3.668-3.091c-1.271-2.97,0.455-6.492,3.116-8.11c0.812-0.496,1.742-0.803,2.691-0.856
			c1.209-0.016,2.145,0.192,3.09,0.242c0.763,0.043,1.531,0.061,2.297,0.055c1.37-0.013,2.737-0.093,4.099-0.229
			c2.092-0.205,4.157-0.614,6.143-1.327c1.941-0.688,3.922-1.506,5.671-2.616c0.827-0.524,1.671-1.048,2.48-1.6
			c0.422-0.292,0.778-0.66,1.165-0.992c0.363-0.319,0.769-0.595,1.116-0.93c12.357-12.048,14.136-26.096,14.229-26.834
			c2.403-20.934-13.77-21.13-14.812-21.123c-0.053,0.004-0.306-0.012-0.787-0.009c-4.864,0.04-32.782,2.142-48.518,43.868
			c-0.874,2.356-17.496,47.12,21.958,50.078c0.015,0,0.298,0.019,0.846,0.019c3.875-0.034,20.29-1.324,32.333-19.949
			c0.573-0.89,1.066-1.826,1.55-2.762c0.074-0.136,1.463-2.759,2.244-5.015c0.688-1.978,1.581-3.943,2.514-5.187
			c0.106-0.13,2.086-2.576,5.527-2.607c0.512-0.002,1.054,0.05,1.624,0.174c5.227,1.15,2.666,8.233,2.533,8.606
			c-0.424,1.315-8.46,26.332-10.767,32.045c-0.406,1.088-8.101,21.775-22.64,33.434c-12.886,10.335-24.967,11.42-29.13,11.458
			c-0.992,0.007-1.507-0.041-1.534-0.046c-20.392-1.157-19.449-18.48-19.397-19.392c0.477-14.644,8.711-18.386,9.142-18.581
			c0.796-0.509,1.69-0.918,2.628-1.004c0.158-0.019,0.316-0.025,0.475-0.025c1.664-0.015,3.221,0.716,4.281,2.009
			c1.141,1.389,1.668,3.233,1.172,5.022c-0.248,0.88-0.703,1.698-1.265,2.427c-0.592,0.763-1.318,1.312-2.027,1.95
			c-0.09,0.08-1.767,1.556-2.027,3.677c-0.26,2.12-0.967,11.649,10.621,11.956c0.009,0,0.198,0.019,0.579,0.013
			c2.204-0.016,10.46-0.71,21.018-9.204c9.815-7.898,16.65-26.111,17.01-27.069c-10.958,7.632-21.457,9.734-29.547,9.802
			c-9.259,0.077-15.053-2.374-15.357-2.502c-24.701-11.646-20.193-42.901-19.957-44.543c3.053-25.449,18.969-44.523,19.809-45.527
			C103.966,351.745,121.18,327.925,146.948,327.704z"/>
	</g>
	<g>
		<g>
			<path fill="#FFFFFF" d="M201.403,420.107c0.558-0.013,1.119-0.006,1.684,0.019c0.323,0.018,0.623,0.04,0.92,0.065
				c4.811,0.424,9.108,2.22,12.096,5.056c3.255,3.088,4.942,7.39,4.628,11.812c-0.072,1.028-0.286,2.139-0.617,3.211
				c-0.561,2.03-2.586,3.453-4.868,3.491c-0.198,0.006-0.397,0-0.598-0.019c-0.164-0.016-0.335-0.037-0.506-0.068
				c-1.401-0.248-2.579-1.004-3.301-2.139c-0.651-1.023-0.849-2.238-0.558-3.416l0.056-0.254c0.118-0.515,0.227-1.005,0.254-1.32
				c0.183-4.003-2.747-6.662-7.842-7.112c-0.112-0.012-0.224-0.018-0.338-0.024c-0.357-0.024-0.719-0.034-1.082-0.031
				c-6.017,0.109-12.347,4.248-13.665,9.139c-0.224,0.586-0.254,1.023-0.291,1.525c-0.152,2.12,0.642,3.878,2.296,5.078
				c1.142,0.887,1.774,2.059,1.848,3.342c0.072,1.283-0.418,2.53-1.379,3.506l-0.747,0.759l-0.313-0.012
				c-0.164,0.09-0.331,0.157-0.492,0.204c-0.115,0.059-0.289,0.14-0.517,0.22c-7.391,2.288-13.132,7.524-14.729,13.377
				c-0.258,0.819-0.413,1.662-0.472,2.458c-0.375,6.609,5.063,11.523,13.476,12.044c0.589,0.038,1.175,0.047,1.761,0.038
				c9.669-0.167,19.226-6.467,21.405-14.403c0.09-0.309,0.168-0.607,0.23-0.892c-0.121-0.006-0.248-0.013-0.372-0.022
				c-1.11-0.059-2.163-0.078-3.164-0.059c-4.824,0.081-8.358,1.042-10.321,2.828c-1.336,1.091-1.807,2.331-1.986,3.097l-0.028,1.144
				c-0.021,2.452-2.074,4.514-4.734,4.713l-0.3,0.006l-0.443-0.024c-2.571-0.224-4.417-1.91-4.697-4.117l-0.031-0.229l0.018-0.236
				c0.003-0.062,0.016-0.297-0.024-0.737l-0.028-0.273l0.038-0.276c0.224-1.621,0.815-5.933,5.1-9.762
				c2.759-2.471,7.957-5.258,17.403-5.425c1.212-0.018,2.495,0,3.85,0.075c0.484,0.024,0.967,0.061,1.457,0.105l0.905,0.087
				c0.431,0.034,0.945,0.078,1.46,0.105l0.837,0.044c0.195,0.093,0.291,0.093,0.387,0.093c1.327-0.024,2.552-0.331,3.305-0.843
				c0.788-0.49,1.541-1.116,1.693-3.181l0.04-0.583c0.016-1.116,0.462-2.179,1.268-3.01c0.964-0.988,2.347-1.569,3.807-1.596
				c0.214,0,0.394,0.006,0.564,0.024c2.536,0.224,4.482,2.176,4.529,4.539l-0.072,1.165c-0.322,4.448-2.563,8.215-6.16,10.326
				c-1.199,0.747-2.535,1.324-3.989,1.727c-0.143,1.29-0.384,2.415-0.75,3.478c-1.779,6.225-6.24,11.843-12.561,15.81
				c-5.592,3.515-12.193,5.463-18.799,5.577c-0.756,0.012-1.509,0.003-2.263-0.034c-0.394-0.018-0.771-0.043-1.144-0.077
				c-6.2-0.549-11.814-2.873-15.807-6.557c-4.285-4.06-6.405-9.461-5.999-15.221c0.099-1.339,0.316-2.7,0.67-4.154
				c2.195-7.282,7.684-13.454,15.289-17.361c-1.125-2.312-1.631-4.873-1.451-7.421c0.081-1.135,0.298-2.257,0.633-3.256
				C180.505,427.013,190.435,420.299,201.403,420.107z"/>
		</g>
	</g>
	<g>
		<path fill="#FFFFFF" d="M366.965,366.594c0.694-0.007,6.466,0.124,4.607,6.696c-0.483,1.693-1.537,3.558-2.564,5.226
			c-2.055,3.354-4.759,6.132-8.023,8.318c-2.725,1.829-5.705,3.568-8.826,4.299c-3.119,0.735-5.912,1.07-8.408,1.092
			c-7.096,0.061-11.817-2.406-14.932-5.426c-2.365,4.241-6.299,6.07-6.504,6.166c-1.854,0.927-3.931,1.367-5.964,1.578
			c-2.015,0.204-3.974,0.31-5.856,0.323c-10.243,0.087-18.074-2.27-18.95-2.542c-7.955,9.852-18.206,11.408-23.102,11.892
			c-0.462,0.043-0.753,0.056-1.048,0.056c-6.712,0.058-13.979-5.63-14.93-9.967c-0.415,0.642-8.354,12.801-18.166,13.086
			c-4.563-0.242-7.583-1.925-9.524-4.402c-4.951,8.922-13.345,9.524-14.344,9.561c-0.294,0.012-0.486,0.015-0.675,0.018
			c-4.006,0.038-7.161-1.222-9.365-3.732c-2.579-2.945-3.344-7.084-3.531-10.044c-0.204-3.18,0.187-5.642,0.201-5.741
			c0.94-9.764,5.559-21.414,5.605-21.533c2.731-6.424,2.207-8.488,1.857-9.07c-0.176-0.304-0.384-0.351-0.387-0.351
			c-0.143-0.034-0.403-0.121-0.918-0.114c-0.766,0.006-2.086,0.214-3.946,1.202c-2.32,1.172-4.3,1.51-5.788,1.522
			c-1.06,0.009-1.872-0.146-2.372-0.282c-0.716,3.518-4.609,22.543-7.173,29.878c-0.007,0.021-1.392,4.662-5.729,4.699
			c-0.304-0.006-2.511-0.043-3.807-1.698c-0.899-1.148-1.125-2.748-0.669-4.762c0.226-1.649,3.069-10.531,3.19-10.906
			c3.546-11.66,6.206-30.833,6.234-31.025c0.347-2.368,2.155-5.933,5.704-6.07c1.612-0.018,2.737,0.438,3.546,1.346
			c1.842,2.086,1.308,5.788,1.286,5.946c-0.13,0.954-0.357,1.656-0.552,2.276c1.333,0.428,2.462,0.049,3.652-0.695
			c0.131-0.084,3.342-2.146,7.717-2.183c1.857-0.013,7.108,0.161,9.799,3.789c1.894,2.554,2.055,6.203,0.481,10.843l-3.441,11.158
			c-0.065,0.17-6.553,17.047-3.664,22.726c0.447,0.877,1.082,1.407,1.944,1.621c0.261,0.064,0.518,0.096,0.775,0.09
			c5.803-0.05,11.101-16.269,11.135-16.4c0.099-0.328,1.944-6.562,3.041-9.52c11.805-33.235,27.104-34.296,27.91-34.351
			c0.527-0.056,1.029-0.081,1.51-0.087c7.273-0.058,9.427,4.759,9.539,5.013c0.061-0.19,1.181-3.829,1.652-4.79
			c0.071-0.189,1.448-3.776,4.849-3.807c0.545-0.006,1.144,0.087,1.794,0.307c4.496,1.525,1.47,8.64,1.312,9.011
			c-0.611,1.73-12.168,34.491-12.664,38.934c-0.043,0.446-0.831,8.925,5.8,10.159c0.192,0.034,0.405,0.047,0.639,0.047
			c0.495-0.003,1.06-0.09,1.646-0.22c-0.307-0.424-0.58-0.874-0.803-1.343c-0.76-1.596-0.939-3.345-0.468-5.071
			c0.458-1.684,1.432-3.218,2.672-4.437c1.475-1.444,3.407-2.234,5.356-2.768c1.433-0.394,2.896-0.552,4.362-0.561
			c0.617-0.007,1.24,0.012,1.857,0.053c2.109,0.139,4.173,0.468,6.25,0.809c0.292,0.05,0.586,0.099,0.878,0.155l8.865-15.159
			c-1.633-0.17-3.038-1.315-3.645-2.821c-0.617-1.525-0.335-3.33,0.738-4.606c0.546-0.657,1.277-1.148,2.093-1.38
			c0.492-0.14,1.001-0.201,1.509-0.285c0.49-0.084,0.977-0.189,1.47-0.257c0.537-0.081,1.057-0.208,1.593-0.292l7.248-15.224
			c-1.187-0.425-2.43-0.67-3.639-1.026c-1.147-0.341-2.263-0.689-3.422-0.974c-1.19-0.297-2.387-0.586-3.596-0.809
			c-1.082-0.198-2.232-0.438-3.351-0.428c-2.115,0.078-3.928,0.341-5.444,1.616c-1.392,1.165-2.123,2.963-1.968,4.758
			c0.08,0.896,0.44,1.683,1.004,2.368c0.49,0.589,1.439,0.97,2.17,1.1c0.412,0.075,0.831,0.112,1.252,0.105
			c0.611-0.003,1.219-0.093,1.814-0.26c0.36-0.112,0.756-0.236,1.057-0.481c0.353-0.288,0.604-0.707,0.905-1.051
			c0.933-1.061,2.353-1.888,3.763-1.898c0.335,0.013,5.183,0.57,3.714,5.856c-1.705,6.144-9.244,6.761-9.641,6.792
			c-0.267,0.013-0.527,0.016-0.781,0.019c-15.838,0.136-14.269-13.618-14.186-14.341c0.028-0.518,0.62-10.354,11.005-12.921
			c1.562-0.384,3.252-0.558,4.985-0.57c9.024-0.078,18.758,3.869,19.272,4.077c0.093-0.251,1.861-4.957,8.544-5.695
			c0.248-0.031,0.499-0.043,0.763-0.043c1.664-0.019,3.524,0.474,4.928,1.237c0.198,0.114,3.987,2.278,3.491,6.643
			c-0.819,7.133-5.354,8.646-8.965,8.68c-2.548,0.019-4.536-0.657-4.637-0.694l-5.457,11.535c2.499,0.118,4.402,2.564,4.079,5.012
			c-0.167,1.284-0.883,2.4-1.928,3.153c-0.601,0.425-1.243,0.717-1.956,0.855c-0.738,0.147-1.485,0.214-2.226,0.332
			c-0.533,0.093-1.066,0.192-1.596,0.275c-0.112,0.019-0.406,0.01-0.477,0.109l-8.913,17.415c0.282,0.124,5.636,2.465,11.709,2.412
			c4.854-0.044,9.988-1.692,12.744-7.502c-0.397-1.219-0.524-1.963-0.53-2.003c-1.401-10.081,2.585-16.944,6.178-20.925
			c3.125-3.459,6.421-5.369,7.691-6.023c-1.426-2.166-1.596-5.124-1.609-5.282c-0.338-16.722,13.87-19.298,14.616-19.431
			c0.05-0.01,1.008-0.221,2.508-0.23c3.655-0.034,10.208,1.15,12.109,9.66c2.685,12.05-4.914,13.194-5.316,13.252
			c-0.01,0.007-0.239,0.044-0.615,0.05c-1.262,0.006-4.058-0.425-4.616-4.396c-0.006-0.08-0.152-1.609,0.797-2.895
			c0.037-0.062,0.673-1.262,0.195-2.896c-0.341-1.159-1.507-2.809-3.535-2.793c-0.819,0.01-1.779,0.288-2.879,0.982
			c-0.158,0.109-3.178,2.109-3.59,6.331c-0.015,0.158-0.248,3.162,2.164,4.433c1.711-0.022,7.093,0.278,7.833,5.601
			c0.031,0.292,0.604,5.832-5.487,6.805c-0.012,0-0.223,0.04-0.657,0.044c-0.983,0.006-3.053-0.174-5.971-1.463
			c-0.579,0.161-11.619,3.153-10.022,14.619c0.077,0.533,1.59,10.736,12.775,10.64c0.93-0.007,1.925-0.09,2.991-0.261
			c0.431-0.087,8.683-1.714,12.171-9.161c0.493-1.051,0.855-2.157,1.413-3.178C363.121,367.958,364.975,366.674,366.965,366.594z
			 M256.642,358.974c0.081-1.637,0.084-4.055-0.777-6.095c-0.316-0.732-0.707-1.547-1.417-1.91c-0.018-0.012-0.365-0.267-1.131-0.26
			c-2.019,0.019-6.814,1.953-15.023,15.798c-0.378,0.669-7.589,13.351-6.411,26.895c0.255,3.143,1.603,4.027,3.06,4.014
			c1.941-0.018,3.965-1.547,4.074-1.627c9.439-7.232,14.849-23.306,15.134-24.155C255.594,367.611,256.432,363.352,256.642,358.974
			 M276.463,392.342c1.206-0.013,3.572-1.444,3.696-1.519c-0.047-0.006-0.903-0.13-1.882-0.124c-1.181,0.012-2.471,0.223-2.456,1.11
			C275.828,392.2,276.082,392.346,276.463,392.342 M323.27,336.475c-0.726,0.006-2.114,1.369-2.186,1.438
			c0.028,0.007,0.601,0.168,1.225,0.165c0.67-0.007,1.367-0.214,1.358-1.057C323.661,336.623,323.506,336.475,323.27,336.475"/>
	</g>
	<g>
		<path fill="#FFFFFF" d="M513.671,393.006c1.357,1.454,1.701,3.519,0.861,5.134c-0.428,0.825-1.153,1.525-2.037,1.978
			c-0.617,0.319-3.121,0.967-8.339,1.922l-6.593,1.162l-7.437,21.827l-7.87,22.116c-0.174,0.489-3.463,9.778,5.751,9.524
			c0.611-0.019,1.764-0.142,3.264-0.961c0.372-0.208,0.707-0.487,1.036-0.763c0.675-0.57,1.314-1.169,1.81-1.904
			c0.951-1.389,1.606-3.094,1.315-4.784c-0.139-0.796-0.338-1.546-0.335-2.365c0.012-0.781,0.143-1.568,0.449-2.297
			c0.618-1.467,1.956-2.443,3.478-2.8c0.31-0.075,0.621-0.118,0.924-0.127c1.237-0.046,2.431,0.375,3.358,1.228
			c0.583,0.543,0.98,1.28,1.245,2.03c0.286,0.819,0.54,1.644,0.663,2.499c0.051,0.22,0.993,4.427-1.531,10.137
			c-0.216,0.552-4.327,11.035-15.341,11.786c-0.388,0.025-0.763,0.044-1.129,0.056c-7.833,0.304-11.693-2.077-13.544-4.065
			c-5.189,6.135-12.505,6.463-12.75,6.47c-4.036,0.161-5.967-1.885-6.07-1.994c-5.683,4.064-10.317,4.219-10.562,4.231
			c-0.186,0.013-0.375,0.022-0.558,0.025c-6.653,0.26-10.949-3.081-12.196-4.197c-5.028,6.522-10.161,10.007-15.264,10.351
			c-6.644,0.258-9.586-4.384-10.521-6.272c-0.391,0.527-7.794,10.609-16.666,10.95c-4.457-0.335-7.13-1.816-8.863-3.947
			c0.059,0.164-8.584,14.04-25.262,15.171c-0.589,0.051-1.159,0.09-1.711,0.112c-19.568,0.751-20.467-16.255-20.513-17.152
			c-0.465-9.61,3.85-15.726,7.552-19.164c3.218-2.995,6.47-4.507,7.713-5.015c-1.15-2.157-1.063-4.961-1.06-5.109
			c1.091-15.767,14.62-16.973,15.333-17.038c0.009,0,0.233-0.025,0.629-0.043c2.415-0.09,10.987,0.285,12.27,10.174
			c1.501,11.576-5.722,11.994-6.101,12.016c-0.676,0.024-4.315-0.018-4.526-4.536c0-0.077-0.018-1.528,0.992-2.659
			c0.034-0.056,0.732-1.129,0.422-2.706c-0.242-1.203-1.324-3.023-3.516-2.939c-0.676,0.024-1.453,0.229-2.343,0.688
			c-0.155,0.084-3.15,1.705-3.894,5.649c-0.024,0.149-0.502,2.958,1.653,4.358c0.331,0.007,6.584,0.112,6.863,5.94
			c0.003,0.279,0.081,5.543-5.714,5.934c-0.427,0.018-2.659,0.013-6.085-1.898c-0.558,0.099-11.154,1.972-10.627,12.899
			c0.031,0.58,0.663,11.637,13.274,11.15c0.205-0.006,0.406-0.018,0.62-0.03c0.675-0.063,13.525-1.209,21.765-21.384
			c0.899-5.285,2.52-9.356,2.608-9.573c11.82-30.374,25.959-30.914,26.706-30.938c0.158-0.016,0.323-0.025,0.471-0.028
			c7.456-0.288,9.468,4.638,9.573,4.895c0.062-0.173,1.202-3.503,1.662-4.377c0.062-0.161,1.364-3.267,4.325-3.378
			c0.573-0.022,1.206,0.075,1.894,0.334c4.105,1.538,1.116,8.029,0.958,8.37c-0.61,1.575-12.193,31.521-12.775,35.613
			c-0.044,0.18-0.8,3.615,1.376,4.43c0.238,0.09,0.499,0.124,0.778,0.112c1.969-0.075,4.519-2.273,4.659-2.387
			c2.716-2.236,6.963-6.867,11.721-16.216c2.88-5.66,5.658-12.456,8.253-20.206c6.125-19.977,9.78-22.717,9.969-22.86
			c0.113-0.112,2.171-2.222,4.747-2.322c0.236-0.009,0.471,0,0.707,0.031c2.498,0.301,3.626,2.092,3.689,2.192
			c0.043,0.065,1.503,2.253,0.825,5.049c-0.527,2.143-2.152,4.021-4.837,5.581c0.065,1.007,0.543,5.019,3.857,13.947
			c0.077,0.177,2.046,4.879,2.734,6.876c0.199,0.508,4.408,10.323,0.428,20.401c0.025,0.015,0.546,0.301,1.445,0.263
			c1.723-0.065,4.756-1.358,7.738-8.333c0.133-0.774,0.301-1.547,0.459-2.3c0.304-1.439,0.781-2.685,1.252-3.891
			c0.248-0.642,0.502-1.311,0.719-1.966l0.887-2.539c0.05-0.224,0.099-0.446,0.152-0.676l12.307-35.105
			c-4.926,1.147-8.578,1.993-9.542,2.002c-1.2-0.037-2.025-0.427-2.717-1.02c-1.355-1.156-1.778-3.202-1.044-5.093
			c0.347-0.914,0.943-1.724,1.674-2.282c0.893-0.682,1.953-0.937,2.88-1.122l12.434-2.422l3.156-9.191
			c0.383-0.921,0.957-1.674,1.744-2.3c0.936-0.744,1.814-1.122,2.682-1.153c1.051,0.006,2.124,0.366,2.896,0.911
			c1.469,1.035,2.101,3.162,1.5,5.059l-1.5,4.346l6.829-1.432c0.518-0.115,1.095-0.224,1.69-0.248
			c0.449-0.016,0.912,0.019,1.376,0.137C512.17,391.791,513.008,392.305,513.671,393.006z M410.588,440.421
			c0.118-1.513,0.193-3.742-0.545-5.654c-0.272-0.685-0.607-1.448-1.259-1.801c-0.019-0.016-0.384-0.31-1.225-0.272
			c-1.968,0.074-6.404,2.015-14.101,14.161c-0.372,0.576-7.366,11.507-6.665,24.063c0.152,3.059,1.493,3.846,2.916,3.794
			c1.733-0.069,3.5-1.321,3.593-1.386c8.916-6.411,14.343-20.532,14.629-21.273C409.373,448.373,410.276,444.46,410.588,440.421
			 M443.871,463.866c12.413-0.844,11.309-12.568,11.246-13.188c-0.359-7.545-5.821-17.98-6.113-18.531
			c-0.012-0.044-0.034-0.09-0.043-0.134c-1.318,4.226-5.655,17.407-12.056,28.667c0.691,0.862,3.01,3.341,6.723,3.199
			C443.703,463.876,443.784,463.872,443.871,463.866"/>
	</g>
	<g>
		<path fill="#FFFFFF" d="M365.273,393.75c0.322,0.038,6.529,0.71,3.569,7.317c-0.723,1.612-2.034,3.308-3.289,4.811
			c-2.511,3.025-5.587,5.382-9.121,7.074c-7.272,3.479-16.291,4.079-21.366,4.108c-2.427,0.013-3.874-0.102-3.952-0.109
			c-0.251,0.161-5.041,3.175-10.79,31.49c1.655-0.168,3.716-0.602,6.02-1.594c0.161-0.072,0.304-0.186,0.421-0.316
			c0.738-2.734,3.733-4.833,7.317-4.913c4.234-0.022,7.521,2.588,7.536,5.899c0,0.874-0.232,1.705-0.645,2.467
			c-0.561,1.234-1.444,1.866-1.491,1.898c-6.129,4.613-15.94,6.374-21.523,7.031c-0.403,3.676-8.048,73.585-65.625,73.885
			c-0.263,0-0.529,0-0.793,0c-33.304-0.216-30.167-32.305-30.006-33.995c3.587-37.02,33.629-37.857,35.827-37.869
			c16.257,0.103,21.368,9.229,21.639,9.709c0.331-0.865,6.665-17.292,30.783-21.576l0.139-0.52
			c6.193-25.799,10.032-32.079,10.236-32.408c-6.77-0.974-12.641-1.358-17.734-1.333c-25.454,0.131-31.057,10.107-31.348,10.633
			c-0.155,0.205-3.017,4.055-2.709,9.102c0.024,0.44,0.471,8.841,8.531,8.798c0.766-0.006,1.596-0.087,2.504-0.27
			c11.204-2.21,11.755-10.987,11.784-11.449c0.226-1.106,0.533-2.132,1.19-3.068c0.54-0.769,1.237-1.439,2.055-1.907
			c0.753-0.43,1.602-0.642,2.445-0.648c0.964-0.007,1.926,0.26,2.741,0.793c1.687,1.104,2.576,3.264,2.102,5.236
			c-4.941,20.612-21.477,21.97-25.482,21.989c-0.561,0.006-0.862-0.019-0.878-0.019c-20.612-1.823-17.065-21.626-16.876-22.668
			c4.098-26.034,34.854-26.89,38.124-26.906c0.555-0.015,0.911-0.027,1.339-0.027c6.879-0.037,30.957,1.581,32.222,1.667
			c2.323,0.181,4.458,0.261,6.427,0.248c17.708-0.093,21.443-6.879,21.641-7.235c0.698-0.93,1.154-2.015,1.851-2.945
			c1.082-1.442,2.836-2.4,4.625-2.406C364.9,393.725,365.084,393.731,365.273,393.75z M289.539,504.29
			c13.175-17.257,17.609-42.649,17.844-43.986c-2.403,0.71-4.758,1.69-7,2.818c-1.082,0.546-2.158,1.128-3.181,1.785
			c-0.968,0.62-1.832,1.383-2.728,2.099c-0.911,0.735-1.64,1.624-2.417,2.486c-0.757,0.828-1.473,1.723-2.133,2.631
			c-1.373,1.898-2.498,4.049-3.338,6.222c-0.45,1.15-0.883,2.316-1.243,3.494c-0.345,1.116-0.794,2.238-1.001,3.386
			c-0.218,1.233,0.015,2.492-0.233,3.717c-0.204,1.032-0.725,2.018-1.475,2.762c-1.222,1.218-2.98,1.916-4.688,1.922
			c-0.328,0.003-0.657-0.018-0.976-0.071c-1.584-0.245-3.007-1.299-3.562-2.8c0.018,0.037-0.115-0.291-0.128-0.377
			c-0.006-0.066-0.034-0.155-0.049-0.248c-0.168-0.998-0.145-1.55-0.053-2.089c0.08-0.502,0.251-0.98,0.368-1.476
			c0.121-0.496,0.156-1.01,0.068-1.5c-2.244-12.512-11.925-13.591-15.345-13.572c-0.75,0.006-1.178,0.056-1.2,0.062
			c-24.809,2.003-25.073,25.526-25.089,26.763c-0.586,22.967,18.969,23.68,19.995,23.718c0.192,0,0.384,0,0.574,0
			C276.504,521.911,288.889,505.171,289.539,504.29"/>
	</g>
	<g>
		<g>
			<g>
				<path fill="#FFFFFF" d="M362.802,355.357c-0.5,0.04-0.9-0.319-0.905-0.828c-0.007-0.515,0.415-0.995,0.939-1.066l35.238-4.619
					c0.533-0.068,0.951,0.301,0.954,0.819c0,0.521-0.415,1.004-0.939,1.073l-35.239,4.613
					C362.833,355.353,362.817,355.353,362.802,355.357z"/>
			</g>
			<g>
				<path fill="#FFFFFF" d="M368.794,359.43c-0.502,0.037-0.906-0.326-0.906-0.828c-0.006-0.518,0.416-0.998,0.943-1.067
					l20.569-2.697c0.537-0.075,0.952,0.304,0.958,0.818c0.003,0.527-0.419,1.001-0.943,1.07l-20.572,2.697
					C368.832,359.427,368.813,359.427,368.794,359.43z"/>
			</g>
			<g>
				<path fill="#FFFFFF" d="M373.835,363.171c-0.509,0.044-0.906-0.316-0.911-0.822c-0.007-0.523,0.415-1.001,0.936-1.07
					l13.237-1.735c0.534-0.065,0.955,0.301,0.955,0.818c0.013,0.527-0.415,1.005-0.936,1.07l-13.237,1.736
					C373.863,363.171,373.841,363.171,373.835,363.171z"/>
			</g>
			<g>
				<path fill="#FFFFFF" d="M378.677,367.213c-0.496,0.038-0.893-0.322-0.899-0.824c-0.006-0.521,0.412-0.998,0.937-1.073
					l10.434-1.362c0.54-0.077,0.954,0.295,0.958,0.819c0.003,0.518-0.419,1.002-0.94,1.069l-10.441,1.368
					C378.715,367.211,378.693,367.213,378.677,367.213z"/>
			</g>
		</g>
		<g>
			<path fill="#FFFFFF" d="M479.713,375.956c-0.005,4.124,3.274,7.081,7.303,6.591c4.034-0.486,7.317-4.241,7.335-8.363
				c0-4.126-3.274-7.081-7.307-6.598C483.008,368.076,479.72,371.827,479.713,375.956z M482.925,375.565
				c0.006-2.319,1.847-4.417,4.117-4.69c2.261-0.276,4.091,1.385,4.091,3.698c-0.006,2.319-1.847,4.414-4.11,4.69
				C484.76,379.539,482.925,377.881,482.925,375.565z"/>
			<path fill="#FFFFFF" d="M488.182,374.93c0.006,0.651-0.514,1.242-1.153,1.317c-0.639,0.08-1.153-0.385-1.153-1.042
				c0-0.651,0.517-1.246,1.159-1.318C487.668,373.811,488.189,374.276,488.182,374.93z"/>
			<path fill="#FFFFFF" d="M432.444,329.502l7.323-0.883c0-0.871-1.64-1.65-3.664-1.404
				C434.084,327.459,432.444,328.638,432.444,329.502z"/>
			<path fill="#FFFFFF" d="M415.059,331.604l7.329-0.883c0-0.871-1.636-1.65-3.664-1.402
				C416.702,329.561,415.066,330.739,415.059,331.604z"/>
			<path fill="#FFFFFF" d="M408.239,383.567c-0.013,4.122,3.267,7.08,7.297,6.596c4.037-0.49,7.322-4.247,7.332-8.364
				c0.006-4.129-3.271-7.086-7.307-6.603C411.531,375.69,408.246,379.443,408.239,383.567z M411.451,383.176
				c0.006-2.312,1.844-4.414,4.107-4.687c2.267-0.273,4.095,1.379,4.092,3.695c0,2.319-1.835,4.418-4.107,4.693
				C413.279,387.153,411.445,385.494,411.451,383.176z"/>
			<path fill="#FFFFFF" d="M416.708,382.543c0,0.652-0.521,1.24-1.159,1.321c-0.639,0.075-1.159-0.39-1.154-1.041
				c0.003-0.657,0.521-1.246,1.157-1.321C416.194,381.424,416.708,381.886,416.708,382.543z"/>
			<path fill="#FFFFFF" d="M487.578,326.517c0.065-0.176,0.056-0.363-0.028-0.509c-0.049-0.084-1.125-1.956-3.586-1.658
				l-95.707,11.585c-2.043,0.248-3.292,1.407-3.385,3.125l102.651-12.425C487.544,326.598,487.568,326.555,487.578,326.517z"/>
			<path fill="#FFFFFF" d="M479.143,335.067l-18.876,2.285l-0.071,42.597l15.637-1.894c0.205-0.021,0.394-0.152,0.506-0.338
				l2.75-4.588c-0.006-0.024-0.009-0.056-0.009-0.09L479.143,335.067z M477.096,354.311c-0.006,0.341-0.273,0.648-0.601,0.689
				c-0.329,0.037-0.601-0.205-0.601-0.543l0.006-2.656c0-0.335,0.269-0.645,0.601-0.682c0.328-0.044,0.598,0.198,0.598,0.542
				L477.096,354.311z M477.103,348.083l-14.828,1.789l0.022-10.02c0-0.359,0.289-0.688,0.638-0.725l13.548-1.644
				c0.353-0.043,0.645,0.217,0.639,0.577L477.103,348.083z"/>
			<path fill="#FFFFFF" d="M384.803,370.388l-0.013,9.359c-0.235,0.103-0.403,0.338-0.403,0.598v0.676
				c0,0.263,0.161,0.462,0.397,0.508v2.817l-0.54,0.072c-0.31,0.031-0.57,0.326-0.57,0.646l-0.003,4.488
				c0,0.323,0.254,0.552,0.564,0.508l1.162-0.136c0.31-0.041,0.57-0.323,0.57-0.645v-0.349l19.924-2.415
				c0.325-0.037,0.595-0.338,0.601-0.676l0.022-1.011c0.005-5.276,4.07-10.05,9.052-10.652c4.985-0.604,9.024,3.187,9.021,8.451
				v1.023c0,0.338,0.264,0.577,0.598,0.539l33.809-4.091l0.031-18.696L384.803,370.388z M405.04,381.728l-17.789,2.157
				c-0.229,0.028-0.415-0.142-0.409-0.378c0-0.232,0.183-0.443,0.412-0.471l17.786-2.151c0.229-0.031,0.409,0.136,0.415,0.375
				C405.449,381.493,405.269,381.704,405.04,381.728z M405.049,378.628l-17.79,2.155c-0.227,0.028-0.416-0.143-0.416-0.375
				c0-0.232,0.189-0.449,0.416-0.475l17.79-2.154c0.23-0.031,0.413,0.142,0.413,0.378
				C405.462,378.387,405.272,378.604,405.049,378.628z M405.053,375.522l-17.794,2.152c-0.224,0.03-0.409-0.137-0.409-0.372
				c0-0.236,0.186-0.44,0.415-0.472l17.789-2.151c0.229-0.028,0.415,0.136,0.409,0.372
				C405.468,375.287,405.278,375.497,405.053,375.522z"/>
		</g>
		<path fill="#FFFFFF" d="M504.123,366.668l-1.662,0.198c-0.068,0.006-0.13,0.031-0.18,0.056l0.006-0.942
			c-0.022,0.01-0.044,0.013-0.074,0.018l0.086-9.424c0-1.228-0.226-2.715-2.052-3.432c-0.906-0.352-4.39-1.695-6.483-2.507
			l-0.604-0.232c-0.331-0.128-0.607-0.233-0.781-0.301l-5.747-22.41l-101.777,12.32l-0.047,29.149l74.218-8.984l0.047-23.29
			c0-0.338,0.263-0.648,0.598-0.685l20.073-2.43c0.329-0.037,0.601,0.204,0.601,0.539l-0.068,36.834
			c1.538-2.467,4.058-4.132,6.767-4.458c2.948-0.359,5.68,0.961,7.121,3.385l0.021,0.038c0.09,0.155,0.177,0.304,0.255,0.464
			c0.015,0.038,0.04,0.068,0.062,0.1l0.834,1.481c0.099,0.189,0.303,0.285,0.527,0.26l6.021-0.732v0.329
			c0,0.316,0.247,0.545,0.558,0.508l1.667-0.201c0.31-0.04,0.565-0.332,0.565-0.648l0.012-4.496
			C504.693,366.861,504.432,366.628,504.123,366.668z M401.394,341.626l42.297-5.119l2.768,5.221l-47.855,5.794L401.394,341.626z
			 M409.733,352.408c1.718-0.204,3.311-1.345,4.238-2.815c0.927,1.246,2.518,2.003,4.24,1.795c1.727-0.211,3.314-1.352,4.245-2.821
			c0.93,1.242,2.523,1.999,4.241,1.791c1.724-0.208,3.317-1.348,4.25-2.818c0.921,1.24,2.518,1.996,4.237,1.788
			c1.727-0.207,3.317-1.348,4.248-2.818c0.397,0.363,0.793,0.719,1.191,1.076l-0.016,7.598l-36.193,4.377l-0.131,0.019l0.013-7.595
			c0.53-0.334,0.927-0.79,1.197-1.364C406.41,351.869,408.003,352.622,409.733,352.408z M406.686,348.31l6.358-0.771
			c-0.26,1.525-1.587,2.765-3.18,2.96C408.406,350.678,407.083,349.751,406.686,348.31z M415.04,347.296l6.365-0.771
			c-0.27,1.524-1.597,2.771-3.194,2.963C416.758,349.662,415.437,348.738,415.04,347.296z M423.525,346.271l6.358-0.769
			c-0.264,1.522-1.591,2.766-3.181,2.957C425.242,348.639,423.919,347.715,423.525,346.271z M431.88,345.26l6.361-0.769
			c-0.266,1.522-1.593,2.765-3.187,2.96C433.597,347.628,432.274,346.701,431.88,345.26z M398.071,349.352l6.494-0.788
			c-0.27,1.526-1.603,2.769-3.187,2.964C399.918,351.701,398.598,350.778,398.071,349.352z M444.584,357.279l-1.197,0.146
			l-1.193,1.767l-39.51,4.787l-1.06-1.501l-1.197,0.142l0.006-0.812l44.156-5.344L444.584,357.279z M443.542,346.422
			c-1.46,0.177-2.784-0.747-3.181-2.192l6.498-0.788C446.459,344.987,445.133,346.227,443.542,346.422z M488.337,348.707
			l-5.115,0.62c-0.688,0.084-1.236-0.418-1.236-1.116l0.027-14.83c0-1.135,0.9-2.164,2.012-2.297
			c0.921-0.111,1.717,0.425,1.94,1.312l3.535,14.471c0.053,0.13,0.077,0.272,0.077,0.428
			C489.577,347.988,489.016,348.623,488.337,348.707z M498.654,366.175c-0.534,0.065-0.962-0.97-0.964-2.303
			c0.002-1.333,0.436-2.474,0.97-2.536c0.534-0.062,0.967,0.968,0.967,2.301C499.621,364.973,499.184,366.11,498.654,366.175z
			 M499.634,359.588c0,0.155-0.124,0.292-0.277,0.31l-1.521,0.186c-0.149,0.018-0.273-0.093-0.267-0.245v-0.623
			c-0.006-0.149,0.118-0.291,0.267-0.31l1.521-0.18c0.153-0.019,0.277,0.09,0.277,0.241V359.588z"/>
	</g>
	<g>
		<g>
			<path fill="#FFFFFF" d="M189.759,309.727c-0.691,0.192-1.355,0.111-1.984-0.236c-0.614-0.36-1.023-0.881-1.225-1.562
				l-1.952-7.025l-0.016-0.015l-5.714-20.42c-0.024-0.074-0.04-0.155-0.053-0.241l-0.031-0.112c0-0.075,0-0.124,0-0.143
				c-0.009-0.012-0.012-0.053-0.016-0.127c0.007-0.058,0.013-0.101,0.016-0.124c-0.009-0.016-0.012-0.046-0.003-0.109
				c0.01-0.087,0.01-0.13,0.003-0.143c0-0.022,0.013-0.056,0.028-0.109c0.009-0.08,0.018-0.127,0.031-0.137
				c-0.013,0.01,0-0.027,0.027-0.108c0.019-0.068,0.031-0.115,0.034-0.136l0.028-0.106c0.03-0.081,0.049-0.124,0.065-0.134
				c0.012-0.027,0.041-0.077,0.078-0.146c0.03-0.08,0.04-0.109,0.025-0.077c-0.013,0.031,0,0,0.044-0.09
				c0.049-0.055,0.08-0.099,0.093-0.13c0.012-0.009,0.043-0.053,0.096-0.13l0.056-0.071c0.021-0.019,0.059-0.056,0.106-0.112
				l0.074-0.087c0.013-0.01,0.047-0.034,0.106-0.084c0.044-0.034,0.074-0.056,0.087-0.068c0.021-0.015,0.056-0.043,0.103-0.081
				l0.105-0.081l0.114-0.062l0.102-0.053c0.025-0.021,0.072-0.04,0.149-0.059c0.078-0.044,0.106-0.055,0.084-0.041
				c0.167-0.071,0.332-0.12,0.502-0.146c-0.019,0,0.013-0.006,0.096-0.019c0.087-0.006,0.139-0.013,0.161-0.013h0.109
				c0.074,0,0.12,0,0.143,0c0.012-0.006,0.05-0.006,0.112,0c0.058,0.007,0.106,0.007,0.139,0c0.009,0.013,0.043,0.022,0.106,0.028
				c0.083,0.01,0.13,0.021,0.136,0.034l0.112,0.025c0.08,0.013,0.127,0.022,0.133,0.034c0.01,0.01,0.05,0.028,0.121,0.047
				c0.071,0.019,0.115,0.031,0.121,0.043c0.077,0.031,0.154,0.068,0.223,0.105l18.483,10.392l0.015,0.019l6.358,3.558
				c0.617,0.361,1.026,0.881,1.228,1.563c0.189,0.694,0.108,1.351-0.239,1.981c-0.173,0.307-0.391,0.561-0.657,0.772
				c-0.914,0.716-1.875,0.787-2.887,0.217l-4.827-2.716l-10.044,7.889l1.495,5.336c0.319,1.116,0.018,2.034-0.893,2.752
				c-0.269,0.205-0.4,0.31-0.4,0.31S190.096,309.635,189.759,309.727z M195.221,290.544l-9.672-5.419l2.995,10.664L195.221,290.544z
				"/>
			<path fill="#FFFFFF" d="M219.172,253.295c0.629-0.319,1.28-0.369,1.952-0.149c0.67,0.221,1.166,0.645,1.485,1.277l8.032,15.863
				c1.407,2.781,1.624,5.651,0.654,8.617c-0.97,2.964-2.842,5.149-5.611,6.55c-2.78,1.407-5.651,1.624-8.617,0.651
				c-2.964-0.968-5.149-2.846-6.56-5.626l-8.032-15.863c-0.316-0.632-0.369-1.28-0.149-1.952c0.224-0.67,0.648-1.166,1.277-1.485
				c0.629-0.319,1.28-0.369,1.952-0.152c0.67,0.223,1.169,0.648,1.485,1.276l8.032,15.864c0.769,1.521,1.968,2.551,3.586,3.081
				c1.622,0.531,3.193,0.412,4.716-0.359c1.506-0.766,2.526-1.956,3.059-3.58c0.53-1.619,0.41-3.187-0.36-4.713l-8.028-15.859
				c-0.323-0.633-0.369-1.284-0.15-1.953C218.118,254.107,218.539,253.61,219.172,253.295z"/>
			<path fill="#FFFFFF" d="M258.127,272.93c-4.185,1.153-8.172,0.651-11.963-1.494c-3.782-2.167-6.247-5.341-7.393-9.527
				c-1.154-4.194-0.654-8.181,1.497-11.962c2.161-3.794,5.332-6.265,9.517-7.416c3.447-0.945,6.823-0.743,10.138,0.602
				c0.657,0.282,1.125,0.747,1.413,1.401c0.275,0.669,0.279,1.339,0.003,2.009c-0.273,0.669-0.738,1.141-1.395,1.413
				c-0.672,0.279-1.339,0.285-2.009,0.024c-2.198-0.905-4.455-1.041-6.767-0.406c-2.793,0.766-4.911,2.415-6.352,4.945
				c-1.441,2.53-1.773,5.202-1.004,8.008c0.766,2.796,2.415,4.913,4.945,6.351c2.533,1.442,5.192,1.779,7.988,1.011
				c2.638-0.723,4.678-2.226,6.126-4.513c0.381-0.615,0.924-0.999,1.624-1.16c0.707-0.161,1.361-0.043,1.975,0.354
				c0.607,0.379,0.992,0.921,1.156,1.625c0.161,0.7,0.05,1.358-0.332,1.965C265.111,269.597,262.055,271.855,258.127,272.93z"/>
			<path fill="#FFFFFF" d="M279.296,268.391c-0.703,0.047-1.329-0.167-1.878-0.648c-0.534-0.465-0.822-1.051-0.871-1.755
				l-1.749-26.149c-0.05-0.706,0.161-1.321,0.626-1.854c0.477-0.549,1.07-0.846,1.776-0.892c0.703-0.05,1.329,0.167,1.878,0.645
				c0.53,0.465,0.822,1.051,0.868,1.755l0.774,11.582l11.706-14.074c0.449-0.546,1.029-0.855,1.749-0.936
				c0.703-0.062,1.329,0.142,1.875,0.607c0.546,0.446,0.852,1.023,0.911,1.727c0.078,0.72-0.115,1.348-0.582,1.9l-9.819,11.817
				l11.759,10.819c0.518,0.499,0.794,1.097,0.828,1.804c0.031,0.707-0.192,1.323-0.67,1.857c-0.471,0.506-1.048,0.778-1.736,0.825
				c-0.734,0.053-1.38-0.174-1.925-0.667l-11.569-10.658l-2.024,2.461l0.474,7.087c0.047,0.703-0.161,1.321-0.626,1.854
				C280.593,268.045,280.001,268.342,279.296,268.391z"/>
			<path fill="#FFFFFF" d="M313.202,236.517c0.719,0.08,1.296,0.409,1.732,0.976c0.453,0.556,0.639,1.194,0.552,1.91l-2.768,23.662
				l11.591,1.358c0.717,0.081,1.303,0.409,1.755,0.979c0.434,0.559,0.614,1.191,0.53,1.907c-0.087,0.717-0.403,1.293-0.961,1.733
				c-0.567,0.449-1.212,0.632-1.928,0.549l-14.176-1.659c-0.717-0.081-1.293-0.409-1.727-0.976c-0.453-0.558-0.639-1.193-0.555-1.91
				l3.069-26.247c0.083-0.72,0.409-1.293,0.98-1.73C311.853,236.616,312.489,236.431,313.202,236.517z"/>
			<path fill="#FFFFFF" d="M332.806,270.859c-0.545-0.465-0.856-1.057-0.92-1.77c-0.056-0.713,0.142-1.342,0.595-1.897l4.687-5.577
				l0.01-0.018l13.622-16.254c0.049-0.059,0.109-0.121,0.17-0.177l0.074-0.093c0.062-0.043,0.099-0.068,0.118-0.078
				c0.003-0.016,0.034-0.044,0.099-0.087c0.053-0.028,0.09-0.047,0.109-0.056c0.006-0.016,0.034-0.034,0.09-0.065
				c0.071-0.037,0.112-0.065,0.115-0.08c0.021-0.007,0.055-0.019,0.105-0.038c0.074-0.037,0.118-0.056,0.134-0.049
				c-0.016-0.007,0.022-0.019,0.102-0.037c0.071-0.025,0.112-0.041,0.133-0.05l0.103-0.037c0.083-0.019,0.133-0.028,0.146-0.025
				c0.034-0.003,0.09-0.012,0.167-0.016c0.084-0.021,0.109-0.027,0.077-0.021c-0.034,0.007,0,0,0.097-0.019
				c0.077,0.01,0.127,0.013,0.164,0.007c0.01,0.006,0.065,0.006,0.158,0.006l0.09,0.006c0.031,0.007,0.084,0.019,0.155,0.025
				l0.114,0.012c0.013,0,0.053,0.016,0.124,0.037c0.056,0.019,0.09,0.028,0.106,0.034c0.024,0.01,0.071,0.022,0.127,0.041
				l0.121,0.037l0.124,0.061l0.096,0.053c0.031,0.01,0.078,0.04,0.137,0.09c0.081,0.04,0.109,0.056,0.077,0.05
				c0.158,0.093,0.289,0.204,0.401,0.335c-0.01-0.022,0.015,0,0.071,0.064c0.062,0.065,0.093,0.109,0.102,0.124l0.062,0.09
				c0.047,0.062,0.071,0.099,0.081,0.118c0.015,0.006,0.038,0.034,0.062,0.09c0.034,0.056,0.059,0.096,0.081,0.118
				c-0.007,0.015,0.009,0.046,0.04,0.102c0.037,0.075,0.05,0.121,0.046,0.133l0.041,0.103c0.034,0.074,0.056,0.117,0.049,0.136
				c-0.003,0.012,0.007,0.055,0.031,0.124c0.022,0.069,0.037,0.112,0.031,0.124c0.016,0.084,0.031,0.164,0.037,0.242l1.869,21.124
				l-0.01,0.018l0.654,7.26c0.056,0.71-0.146,1.346-0.595,1.895c-0.464,0.549-1.057,0.852-1.767,0.924
				c-0.35,0.027-0.688-0.01-1.008-0.109c-1.109-0.347-1.714-1.097-1.811-2.257l-0.489-5.518l-12.18-3.832l-3.559,4.247
				c-0.744,0.893-1.667,1.166-2.778,0.815c-0.319-0.103-0.48-0.152-0.48-0.152S333.076,271.082,332.806,270.859z M351.726,264.529
				l-0.989-11.042l-7.114,8.494L351.726,264.529z"/>
			<path fill="#FFFFFF" d="M382.481,290.975l-0.021-0.009l0.018-0.022l-3.732-25.575l-9.285,16.368
				c-0.357,0.627-0.877,1.033-1.577,1.212c-0.686,0.202-1.346,0.124-1.972-0.232c-0.626-0.357-1.029-0.88-1.209-1.575
				c-0.204-0.692-0.127-1.349,0.23-1.975l13.045-22.983c0.273-0.487,0.661-0.844,1.16-1.066c0.502-0.238,1.032-0.304,1.58-0.195
				c0.54,0.09,1.011,0.338,1.402,0.747c0.384,0.403,0.608,0.877,0.688,1.429l3.717,25.591l9.294-16.384
				c0.356-0.626,0.874-1.035,1.553-1.225c0.704-0.192,1.371-0.112,1.997,0.245c0.623,0.356,1.029,0.88,1.209,1.578
				c0.205,0.685,0.127,1.345-0.229,1.971l-13.066,23.021c-0.01,0.031-0.04,0.062-0.081,0.105c-0.03,0.05-0.046,0.087-0.055,0.099
				c-0.016,0.025-0.04,0.059-0.087,0.102c-0.024,0.053-0.055,0.087-0.08,0.102l-0.078,0.087c-0.043,0.056-0.08,0.087-0.098,0.093
				c-0.006,0.013-0.038,0.037-0.093,0.074c-0.047,0.043-0.075,0.075-0.105,0.093l-0.094,0.075l-0.112,0.062
				c-0.024,0.018-0.068,0.047-0.124,0.087l-0.09,0.022c-0.025,0.021-0.078,0.043-0.143,0.071l-0.102,0.043
				c-0.018,0.007-0.056,0.019-0.117,0.038c-0.068,0.024-0.105,0.037-0.121,0.03c-0.003,0.013-0.047,0.025-0.121,0.031
				c-0.055,0.019-0.105,0.025-0.136,0.025c0.049-0.006,0.037-0.003-0.031,0.007l-0.031,0.009c-0.143,0.022-0.279,0.028-0.397,0.028
				l-0.018-0.013c-0.137-0.003-0.261-0.015-0.385-0.037c-0.064-0.006-0.08-0.006-0.05,0c-0.124-0.021-0.244-0.056-0.366-0.112
				l-0.071-0.012c-0.121-0.053-0.233-0.109-0.338-0.164c-0.074-0.047-0.155-0.097-0.235-0.164c0.012,0.03,0.003,0.022-0.044-0.018
				c-0.065-0.057-0.121-0.105-0.167-0.15c0.006,0.022-0.013,0-0.065-0.061c-0.055-0.05-0.103-0.093-0.133-0.124
				c-0.013-0.01-0.031-0.037-0.056-0.081c-0.056-0.053-0.096-0.098-0.118-0.149c-0.028-0.012-0.044-0.043-0.056-0.081
				c-0.034-0.056-0.068-0.099-0.1-0.133c-0.024-0.047-0.043-0.084-0.046-0.102c-0.022-0.043-0.053-0.106-0.081-0.174
				c-0.027-0.043-0.04-0.08-0.04-0.099c-0.037-0.087-0.068-0.174-0.087-0.251l-0.013-0.028l0.013-0.021
				c-0.022-0.077-0.031-0.121-0.031-0.121S382.49,291.049,382.481,290.975z"/>
			<path fill="#FFFFFF" d="M396.062,301.475c-0.527-0.472-0.812-1.063-0.868-1.779c-0.037-0.726,0.187-1.359,0.67-1.898
				l17.608-19.673c0.477-0.536,1.085-0.825,1.81-0.865c0.707-0.037,1.327,0.183,1.86,0.66l4.985,4.458
				c3.243,2.906,4.991,6.532,5.239,10.881c0.23,4.353-1.097,8.141-3.989,11.378c-2.908,3.243-6.526,4.985-10.868,5.227
				c-4.362,0.241-8.163-1.092-11.405-3.994l-5.006-4.365L396.062,301.475z M401.521,299.317l3.051,2.642
				c2.179,1.949,4.727,2.846,7.629,2.688c2.907-0.165,5.338-1.327,7.279-3.501c1.928-2.157,2.814-4.687,2.656-7.595
				c-0.152-2.92-1.311-5.351-3.481-7.292l-3.026-2.71L401.521,299.317z"/>
		</g>
		<g>
			<g>
				<path fill="#FFFFFF" d="M439.087,548.447c-0.468,0.527-1.057,0.819-1.776,0.874c-0.726,0.047-1.359-0.166-1.898-0.644
					l-19.796-17.478c-0.54-0.478-0.831-1.079-0.878-1.804c-0.046-0.707,0.17-1.327,0.651-1.869l4.423-5.012
					c2.877-3.262,6.492-5.035,10.844-5.317c4.346-0.258,8.147,1.045,11.395,3.918c3.267,2.879,5.035,6.489,5.304,10.829
					c0.27,4.358-1.032,8.172-3.915,11.433l-4.328,5.037L439.087,548.447z M436.889,543.004l2.619-3.07
					c1.938-2.195,2.818-4.745,2.632-7.65c-0.177-2.908-1.362-5.323-3.541-7.248c-2.173-1.922-4.715-2.79-7.62-2.607
					c-2.913,0.169-5.337,1.348-7.266,3.531l-2.684,3.044L436.889,543.004z"/>
				<path fill="#FFFFFF" d="M417.036,567.611c-3.459,2.66-7.365,3.696-11.702,3.119c-4.35-0.564-7.846-2.579-10.505-6.045
					c-2.657-3.463-3.702-7.372-3.125-11.725c0.571-4.328,2.588-7.825,6.051-10.481c3.466-2.66,7.372-3.711,11.711-3.146
					c4.34,0.582,7.841,2.603,10.5,6.073c2.657,3.462,3.698,7.361,3.132,11.689C422.524,561.449,420.502,564.952,417.036,567.611z
					 M400.926,546.606c-2.322,1.785-3.677,4.13-4.058,7.037c-0.384,2.927,0.31,5.556,2.096,7.874
					c1.779,2.326,4.129,3.671,7.046,4.049c2.917,0.391,5.537-0.304,7.859-2.083c2.325-1.783,3.677-4.136,4.064-7.065
					c0.381-2.908-0.316-5.521-2.099-7.846c-1.779-2.319-4.129-3.677-7.049-4.073C405.867,544.126,403.248,544.827,400.926,546.606z"
					/>
				<path fill="#FFFFFF" d="M382.267,588.834c-3.934,1.9-7.967,2.121-12.099,0.674c-4.132-1.43-7.151-4.114-9.049-8.051
					c-1.901-3.931-2.13-7.968-0.682-12.116c1.435-4.122,4.123-7.132,8.054-9.033c3.934-1.9,7.973-2.133,12.102-0.701
					c4.136,1.45,7.149,4.141,9.046,8.078c1.903,3.931,2.133,7.961,0.691,12.085C388.888,583.915,386.198,586.937,382.267,588.834z
					 M370.754,564.995c-2.635,1.278-4.433,3.292-5.4,6.064c-0.971,2.787-0.825,5.5,0.452,8.134c1.272,2.635,3.298,4.433,6.083,5.394
					c2.771,0.977,5.477,0.832,8.109-0.439c2.641-1.275,4.446-3.305,5.419-6.095c0.964-2.768,0.812-5.468-0.465-8.103
					c-1.271-2.635-3.293-4.445-6.07-5.422C376.101,563.569,373.389,563.724,370.754,564.995z"/>
				<path fill="#FFFFFF" d="M349.717,568.21c0.694-0.19,1.358-0.102,1.987,0.257c0.62,0.367,1.02,0.9,1.215,1.591
					c0.186,0.698,0.099,1.355-0.267,1.974c-0.347,0.627-0.868,1.037-1.559,1.222l-0.024,0.006l-12.869,3.463l2.108,7.725
					l9.279-2.526c0.697-0.192,1.358-0.112,1.987,0.229c0.632,0.366,1.045,0.893,1.233,1.587c0.187,0.698,0.099,1.361-0.26,1.99
					c-0.367,0.621-0.897,1.023-1.59,1.216l-9.279,2.53l2.793,10.254c0.192,0.698,0.103,1.351-0.26,1.973
					c-0.364,0.633-0.887,1.041-1.584,1.232c-0.698,0.191-1.352,0.102-1.972-0.266c-0.626-0.346-1.035-0.867-1.228-1.561
					l-6.953-25.52c-0.192-0.708-0.108-1.373,0.257-1.991c0.348-0.629,0.868-1.036,1.563-1.227l0.021-0.003L349.717,568.21z"/>
				<path fill="#FFFFFF" d="M301.279,581.499l-6.547,0.23c-0.723,0.024-1.346-0.211-1.879-0.707
					c-0.518-0.481-0.791-1.079-0.815-1.804c-0.025-0.719,0.204-1.339,0.688-1.857c0.493-0.53,1.101-0.809,1.824-0.837l18.321-0.642
					c0.704-0.025,1.321,0.21,1.858,0.707c0.514,0.484,0.787,1.084,0.811,1.804c0.025,0.719-0.204,1.339-0.685,1.854
					c-0.496,0.534-1.097,0.811-1.801,0.837l-6.573,0.232l0.838,23.853c0.028,0.722-0.208,1.347-0.704,1.88
					c-0.483,0.518-1.082,0.787-1.804,0.812c-0.723,0.025-1.339-0.204-1.857-0.685c-0.534-0.496-0.812-1.104-0.837-1.828
					L301.279,581.499z"/>
				<path fill="#FFFFFF" d="M280.831,602.103c0.71,0.101,1.28,0.439,1.705,1.022c0.437,0.582,0.604,1.226,0.502,1.939
					c-0.099,0.713-0.44,1.284-1.02,1.706c-0.567,0.441-1.209,0.612-1.922,0.507l-15.813-2.233c-0.713-0.102-1.28-0.443-1.704-1.023
					c-0.441-0.566-0.607-1.205-0.506-1.922l3.704-26.186c0.103-0.731,0.444-1.304,1.023-1.726c0.567-0.44,1.209-0.611,1.923-0.508
					l0.021,0.003l15.788,2.275c0.71,0.102,1.287,0.444,1.724,1.026c0.424,0.58,0.583,1.224,0.483,1.937
					c-0.102,0.716-0.44,1.284-1.02,1.705c-0.567,0.441-1.209,0.608-1.922,0.509l-0.022-0.004l-13.188-1.909l-1.122,7.929
					l9.523,1.349c0.713,0.099,1.293,0.434,1.73,0.998c0.441,0.586,0.608,1.233,0.506,1.946c-0.1,0.713-0.444,1.29-1.026,1.724
					c-0.58,0.421-1.225,0.586-1.938,0.484l-9.523-1.345l-1.123,7.929L280.831,602.103z"/>
				<path fill="#FFFFFF" d="M247.668,595.919c0.685,0.222,1.184,0.659,1.498,1.304c0.328,0.65,0.378,1.318,0.151,2.002
					c-0.226,0.683-0.66,1.182-1.305,1.497c-0.636,0.333-1.296,0.383-1.981,0.159l-15.169-5.004
					c-0.685-0.223-1.184-0.657-1.497-1.304c-0.332-0.636-0.385-1.299-0.158-1.981l8.286-25.116c0.229-0.701,0.667-1.203,1.311-1.519
					c0.636-0.332,1.296-0.384,1.981-0.161l0.022,0.006l15.131,5.041c0.685,0.223,1.191,0.66,1.519,1.311
					c0.313,0.648,0.357,1.311,0.131,1.993c-0.227,0.689-0.661,1.185-1.306,1.5c-0.639,0.33-1.296,0.385-1.981,0.158l-0.021-0.008
					l-12.639-4.214l-2.508,7.605l9.136,3.013c0.683,0.223,1.19,0.657,1.522,1.293c0.325,0.65,0.378,1.318,0.152,1.999
					c-0.223,0.686-0.663,1.191-1.311,1.519c-0.645,0.315-1.311,0.36-1.996,0.13l-9.133-3.012l-2.511,7.607L247.668,595.919z"/>
				<path fill="#FFFFFF" d="M226.038,569.76c-0.924,1.709-2.29,2.968-4.098,3.779c-1.764,0.815-3.639,1.067-5.62,0.744
					l-0.425,11.309c-0.028,0.707-0.307,1.295-0.837,1.78c-0.515,0.489-1.134,0.721-1.857,0.7c-0.409-0.021-0.788-0.124-1.135-0.316
					c-0.945-0.508-1.391-1.301-1.346-2.38l0.493-13.2l-3.94-2.129l-5.004,9.253c-0.338,0.62-0.852,1.035-1.553,1.243
					c-0.676,0.202-1.33,0.134-1.966-0.211c-0.619-0.338-1.038-0.846-1.255-1.531c-0.192-0.688-0.124-1.342,0.214-1.969
					l12.508-23.125c0.344-0.636,0.853-1.048,1.531-1.253c0.698-0.211,1.358-0.146,1.978,0.192l8.032,4.341
					c2.393,1.298,4.003,3.19,4.83,5.676C227.434,565.156,227.25,567.521,226.038,569.76z M215.641,568.675
					c1.107,0.549,2.229,0.697,3.37,0.443c1.134-0.273,1.959-0.88,2.467-1.827c0.533-0.983,0.583-2.034,0.152-3.152
					c-0.435-1.116-1.212-1.984-2.334-2.591l-5.745-3.107l-3.81,7.043L215.641,568.675z"/>
				<path fill="#FFFFFF" d="M191.263,542.985l-5.149-4.049c-0.567-0.446-0.897-1.028-0.98-1.752
					c-0.084-0.703,0.093-1.336,0.542-1.906c0.444-0.565,1.017-0.89,1.721-0.974c0.722-0.087,1.367,0.093,1.934,0.54l14.409,11.33
					c0.555,0.437,0.874,1.017,0.961,1.739c0.084,0.701-0.096,1.34-0.542,1.903c-0.446,0.565-1.02,0.893-1.721,0.977
					c-0.725,0.084-1.363-0.089-1.918-0.523l-5.169-4.068l-14.753,18.762c-0.446,0.571-1.029,0.893-1.754,0.98
					c-0.701,0.087-1.333-0.096-1.901-0.543c-0.567-0.443-0.893-1.017-0.977-1.72c-0.087-0.723,0.093-1.37,0.54-1.935
					L191.263,542.985z"/>
				<path fill="#FFFFFF" d="M166.316,543.742c-2.034,1.679-4.392,2.393-7.077,2.139c-2.691-0.261-4.967-1.42-6.82-3.47
					c-1.606-1.779-2.66-3.716-3.168-5.818c-0.614-2.518-0.251-4.793,1.082-6.833c0.394-0.595,0.939-0.965,1.634-1.12
					c0.703-0.139,1.355-0.011,1.949,0.382c0.592,0.394,0.967,0.942,1.116,1.634c0.143,0.703,0.016,1.354-0.379,1.949
					c-0.555,0.855-0.645,1.91-0.269,3.155c0.35,1.114,0.977,2.17,1.885,3.174c0.924,1.023,2.04,1.613,3.345,1.764
					c1.305,0.172,2.443-0.145,3.423-0.951c0.589-0.49,0.914-1.15,0.977-1.978c0.108-1.328-0.546-2.802-1.963-4.412l-0.015-0.018
					c-0.041-0.043-0.05-0.053-0.028-0.031c-0.012-0.011-0.022-0.021-0.03-0.033c-2.372-2.713-3.45-5.457-3.237-8.224
					c0.19-2.291,1.144-4.139,2.858-5.552c2.046-1.69,4.408-2.406,7.094-2.155c2.684,0.251,4.956,1.405,6.82,3.47
					c1.609,1.779,2.665,3.72,3.174,5.816c0.608,2.52,0.248,4.798-1.085,6.832c-0.394,0.595-0.945,0.962-1.649,1.105
					c-0.695,0.148-1.339,0.03-1.931-0.363c-0.596-0.398-0.967-0.939-1.122-1.634c-0.143-0.707-0.013-1.357,0.381-1.95
					c0.552-0.858,0.639-1.912,0.254-3.172c-0.341-1.103-0.961-2.154-1.866-3.158c-0.93-1.026-2.049-1.621-3.364-1.779
					c-1.305-0.152-2.44,0.173-3.407,0.971c-0.586,0.486-0.918,1.152-0.992,1.989c-0.099,1.318,0.56,2.785,1.978,4.397l0.074,0.084
					c2.372,2.712,3.444,5.458,3.221,8.239C168.999,540.468,168.043,542.322,166.316,543.742z"/>
			</g>
		</g>
	</g>
</g>
<path fill="#444445" d="M112.992,563.197c0.002,0.001,0.002,0.001,0.002,0.001s0,0,0,0.002c0.866,0.656,1.734,1.312,2.602,1.97
	c0-0.002,0-0.002,0-0.002c-0.001,0-0.001,0-0.001-0.001c-0.001,0-0.001,0-0.001,0s0,0,0-0.001l-2.603-1.97c0,0.001,0,0.001,0,0.001
	C112.992,563.197,112.992,563.197,112.992,563.197z"/>
</svg>
