<?xml version="1.0" encoding="utf-8"?>
<!-- Generator: Adobe Illustrator 16.0.0, SVG Export Plug-In . SVG Version: 6.00 Build 0)  -->
<!DOCTYPE svg PUBLIC "-//W3C//DTD SVG 1.1//EN" "http://www.w3.org/Graphics/SVG/1.1/DTD/svg11.dtd">
<svg version="1.1" id="Layer_1" xmlns="http://www.w3.org/2000/svg" xmlns:xlink="http://www.w3.org/1999/xlink" x="0px" y="0px"
	 width="191.977px" height="192px" viewBox="0 0 191.977 192" enable-background="new 0 0 191.977 192" xml:space="preserve">
<g>
	<path fill="#231F20" d="M96.424,191.9c-22.161,0-44.327-0.271-66.482,0.096c-15.186,0.252-27.54-12.771-29.044-25.542
		c-0.444-3.776-0.787-7.591-0.792-11.39c-0.058-41.156-0.237-82.315,0.066-123.47C0.286,16.163,10.849,3.167,26.56,0.832
		c3.102-0.461,6.261-0.739,9.395-0.743c41.74-0.049,83.482-0.198,125.221,0.054c14.841,0.089,27.699,9.979,30.467,24.612
		c0.292,1.541,0.312,3.148,0.313,4.726c0.017,44.739,0.036,89.479,0.002,134.219c-0.012,15.149-13.121,28.175-28.299,28.192
		C141.248,191.92,118.835,191.9,96.424,191.9z M146.777,64.735c-0.106-0.219-0.214-0.437-0.32-0.655
		c4.647-3.183,7.952-7.343,9.913-13.095c-0.894,0.354-1.333,0.525-1.771,0.701c-3.681,1.479-7.415,2.836-11.019,4.484
		c-2.317,1.06-3.729,0.219-5.473-1.277c-14.379-12.344-37.081-4.567-40.729,13.99c-0.688,3.498-0.503,7.168-0.733,10.964
		c-20.566-1.329-37.492-10.39-51.416-26.325c-5.917,13.25-3.61,24.205,7.196,33.401c-0.131,0.158-0.263,0.317-0.394,0.476
		c-3.299-0.956-6.598-1.912-10.142-2.939c-0.147,5.768,1.736,10.861,5.196,15.377c3.504,4.573,8.272,7.433,13.812,9.124
		c-0.063,0.227-0.127,0.452-0.191,0.678c-3.299,0-6.599,0-10.197,0c4.46,10.651,11.942,16.51,23.64,17.493
		c-11.076,8.238-23.006,11.464-36.865,10.259c0.959,0.84,1.306,1.27,1.753,1.514c7.402,4.05,15.111,7.223,23.48,8.734
		c18.116,3.274,35.319,0.644,50.838-9.209c22.552-14.316,33.224-35.578,34.003-62.015c0.055-1.846,0.594-2.986,1.908-4.232
		c3.189-3.024,6.166-6.277,9.197-9.466c0.322-0.339,0.444-0.868,0.719-1.431C154.85,62.491,150.813,63.614,146.777,64.735z"/>
</g>
</svg>
